{
  "shell-version": [ "3.4.1", "3.6", "3.6.1" ],
  "uuid": "noim@kayahr",
  "name": "No IM Status",
  "original-authors": [ "Klaus Reimer" ],
  "description": "Removes the IM Status controls from the user menu. Useful if you are using an IM client which doesn't integrate into Gnome Shell anyway or if you use no IM at all.",
  "url": "https://github.com/kayahr/gnome-shell-noim"
}
